i2c_ILA_final/.Xil/Vivado-3552-DESKTOP-4A9L7PJ/hw_ila_data_1/zip_work/waveform.vcd
$date
        2021-Feb-16 09:25:15
$end
$version
        Vivado v2020.1 (64-bit)
$end
$timescale
        1ps
$end
$scope module dut $end
$var reg 16 " pack_cnt [15:0] $end
$var reg 8 2 byte_cnt [7:0] $end
$var reg 7 : s_address_scope [6:0] $end
$var reg 8 A data_scope [7:0] $end
$var reg 1 I ack_addr_scope $end
$var reg 1 J ack_data_scope $end
$var reg 1 K rw_scope $end
$var reg 1 L scl_scope $end
$var reg 1 M sda_scope $end
$var reg 1 N trigger_flag $end
$var reg 1 O _TRIGGER $end
$var reg 1 P _WINDOW $end
$var reg 1 Q _GAP $end
$upscope $end
$enddefinitions $end
#0
$dumpvars
b1000100010100000 "
b1 2
b100011 :
b1010 A
0I
0J
0K
0L
0M
1N
0O
1P
0Q
$end
#1
b10 2
b1001 A
1J
1M
#2
b1000100010100001 "
b1 2
b1111 A
0J
0M
#3
b10 2
b1110 A
1J
1M
#4
b1000100010100010 "
b1 2
b10100 A
0J
0M
#5
b10 2
b10011 A
1J
1M
#6
b1000100010100011 "
b1 2
b11001 A
0J
0M
#7
b10 2
b11000 A
1J
1M
#8
b1000100010100100 "
b1 2
b0 A
0J
0M
#9
b10 2
b11111111 A
1J
1M
#10
b1000100010100101 "
b1 2
b101 A
0J
0M
#11
b10 2
b100 A
1J
1M
#12
b1000100010100110 "
b1 2
b1010 A
0J
0M
#13
b10 2
b1001 A
1J
1M
#14
b1000100010100111 "
b1 2
b1111 A
0J
0M
#15
b10 2
b1110 A
1J
1M
#16
b1000100010101000 "
b1 2
b10100 A
0J
0M
#17
b10 2
b10011 A
1J
1M
#18
b1000100010101001 "
b1 2
b11001 A
0J
0M
#19
b10 2
b11000 A
1J
1M
#20
b1000100010101010 "
b1 2
b0 A
0J
0M
#21
b10 2
b11111111 A
1J
1M
#22
b1000100010101011 "
b1 2
b101 A
0J
0M
#23
b10 2
b100 A
1J
1M
#24
b1000100010101100 "
b1 2
b1010 A
0J
0M
#25
b10 2
b1001 A
1J
1M
#26
b1000100010101101 "
b1 2
b1111 A
0J
0M
#27
b10 2
b1110 A
1J
1M
#28
b1000100010101110 "
b1 2
b10100 A
0J
0M
#29
b10 2
b10011 A
1J
1M
#30
b1000100010101111 "
b1 2
b11001 A
0J
0M
#31
b10 2
b11000 A
1J
1M
#32
b1000100010110000 "
b1 2
b0 A
0J
0M
#33
b10 2
b11111111 A
1J
1M
#34
b1000100010110001 "
b1 2
b101 A
0J
0M
#35
b10 2
b100 A
1J
1M
#36
b1000100010110010 "
b1 2
b1010 A
0J
0M
#37
b10 2
b1001 A
1J
1M
#38
b1000100010110011 "
b1 2
b1111 A
0J
0M
#39
b10 2
b1110 A
1J
1M
#40
b1000100010110100 "
b1 2
b10100 A
0J
0M
#41
b10 2
b10011 A
1J
1M
#42
b1000100010110101 "
b1 2
b11001 A
0J
0M
#43
b10 2
b11000 A
1J
1M
#44
b1000100010110110 "
b1 2
b0 A
0J
0M
#45
b10 2
b11111111 A
1J
1M
#46
b1000100010110111 "
b1 2
b101 A
0J
0M
#47
b10 2
b100 A
1J
1M
#48
b1000100010111000 "
b1 2
b1010 A
0J
0M
#49
b10 2
b1001 A
1J
1M
#50
b1000100010111001 "
b1 2
b1111 A
0J
0M
#51
b10 2
b1110 A
1J
1M
#52
b1000100010111010 "
b1 2
b10100 A
0J
0M
#53
b10 2
b10011 A
1J
1M
#54
b1000100010111011 "
b1 2
b11001 A
0J
0M
#55
b10 2
b11000 A
1J
1M
#56
b1000100010111100 "
b1 2
b0 A
0J
0M
#57
b10 2
b11111111 A
1J
1M
#58
b1000100010111101 "
b1 2
b101 A
0J
0M
#59
b10 2
b100 A
1J
1M
#60
b1000100010111110 "
b1 2
b1010 A
0J
0M
#61
b10 2
b1001 A
1J
1M
#62
b1000100010111111 "
b1 2
b1111 A
0J
0M
#63
b10 2
b1110 A
1J
1M
#64
b1000100011000000 "
b1 2
b10100 A
0J
0M
#65
b10 2
b10011 A
1J
1M
#66
b1000100011000001 "
b1 2
b11001 A
0J
0M
#67
b10 2
b11000 A
1J
1M
#68
b1000100011000010 "
b1 2
b0 A
0J
0M
#69
b10 2
b11111111 A
1J
1M
#70
b1000100011000011 "
b1 2
b101 A
0J
0M
#71
b10 2
b100 A
1J
1M
#72
b1000100011000100 "
b1 2
b1010 A
0J
0M
#73
b10 2
b1001 A
1J
1M
#74
b1000100011000101 "
b1 2
b1111 A
0J
0M
#75
b10 2
b1110 A
1J
1M
#76
b1000100011000110 "
b1 2
b10100 A
0J
0M
#77
b10 2
b10011 A
1J
1M
#78
b1000100011000111 "
b1 2
b11001 A
0J
0M
#79
b10 2
b11000 A
1J
1M
#80
b1000100011001000 "
b1 2
b0 A
0J
0M
#81
b10 2
b11111111 A
1J
1M
#82
b1000100011001001 "
b1 2
b101 A
0J
0M
#83
b10 2
b100 A
1J
1M
#84
b1000100011001010 "
b1 2
b1010 A
0J
0M
#85
b10 2
b1001 A
1J
1M
#86
b1000100011001011 "
b1 2
b1111 A
0J
0M
#87
b10 2
b1110 A
1J
1M
#88
b1000100011001100 "
b1 2
b10100 A
0J
0M
#89
b10 2
b10011 A
1J
1M
#90
b1000100011001101 "
b1 2
b11001 A
0J
0M
#91
b10 2
b11000 A
1J
1M
#92
b1000100011001110 "
b1 2
b0 A
0J
0M
#93
b10 2
b11111111 A
1J
1M
#94
b1000100011001111 "
b1 2
b101 A
0J
0M
#95
b10 2
b100 A
1J
1M
#96
b1000100011010000 "
b1 2
b1010 A
0J
0M
#97
b10 2
b1001 A
1J
1M
#98
b1000100011010001 "
b1 2
b1111 A
0J
0M
#99
b10 2
b1110 A
1J
1M
#100
b1000100011010010 "
b1 2
b10100 A
0J
0M
#101
b10 2
b10011 A
1J
1M
#102
b1000100011010011 "
b1 2
b11001 A
0J
0M
#103
b10 2
b11000 A
1J
1M
#104
b1000100011010100 "
b1 2
b0 A
0J
0M
#105
b10 2
b11111111 A
1J
1M
#106
b1000100011010101 "
b1 2
b101 A
0J
0M
#107
b10 2
b100 A
1J
1M
#108
b1000100011010110 "
b1 2
b1010 A
0J
0M
#109
b10 2
b1001 A
1J
1M
#110
b1000100011010111 "
b1 2
b1111 A
0J
0M
#111
b10 2
b1110 A
1J
1M
#112
b1000100011011000 "
b1 2
b10100 A
0J
0M
#113
b10 2
b10011 A
1J
1M
#114
b1000100011011001 "
b1 2
b11001 A
0J
0M
#115
b10 2
b11000 A
1J
1M
#116
b1000100011011010 "
b1 2
b0 A
1K
#117
b1000100011011011 "
0J
0K
0M
#118
b10 2
b11111111 A
1J
1M
#119
b1000100011011100 "
b1 2
b101 A
0J
0M
#120
b10 2
b100 A
1J
1M
#121
b1000100011011101 "
b1 2
b1010 A
0J
0M
#122
b10 2
b1001 A
1J
1M
#123
b1000100011011110 "
b1 2
b1111 A
0J
0M
#124
b10 2
b1110 A
1J
1M
#125
b1000100011011111 "
b1 2
b10100 A
0J
0M
#126
b10 2
b10011 A
1J
1M
#127
b1000100011100000 "
b1 2
b11001 A
0J
0M
#128
b10 2
b11000 A
1J
1M
#129
b1000100011100001 "
b1 2
b0 A
0J
0M
#130
b10 2
b11111111 A
1J
1M
#131
b1000100011100010 "
b1 2
b101 A
0J
0M
#132
b10 2
b100 A
1J
1M
#133
b1000100011100011 "
b1 2
b1010 A
0J
0M
#134
b10 2
b1001 A
1J
1M
#135
b1000100011100100 "
b1 2
b1111 A
0J
0M
#136
b10 2
b1110 A
1J
1M
#137
b1000100011100101 "
b1 2
b10100 A
0J
0M
#138
b10 2
b10011 A
1J
1M
#139
b1000100011100110 "
b1 2
b11001 A
0J
0M
#140
b10 2
b11000 A
1J
1M
#141
b1000100011100111 "
b1 2
b0 A
0J
0M
#142
b10 2
b11111111 A
1J
1M
#143
b1000100011101000 "
b1 2
b101 A
0J
0M
#144
b10 2
b100 A
1J
1M
#145
b1000100011101001 "
b1 2
b1010 A
0J
0M
#146
b10 2
b1001 A
1J
1M
#147
b1000100011101010 "
b1 2
b1111 A
0J
0M
#148
b10 2
b1110 A
1J
1M
#149
b1000100011101011 "
b1 2
b10100 A
0J
0M
#150
b10 2
b10011 A
1J
1M
#151
b1000100011101100 "
b1 2
b11001 A
0J
0M
#152
b10 2
b11000 A
1J
1M
#153
b1000100011101101 "
b1 2
b0 A
0J
0M
#154
b10 2
b11111111 A
1J
1M
#155
b1000100011101110 "
b1 2
b101 A
0J
0M
#156
b10 2
b100 A
1J
1M
#157
b1000100011101111 "
b1 2
b1010 A
0J
0M
#158
b10 2
b1001 A
1J
1M
#159
b1000100011110000 "
b1 2
b1111 A
0J
0M
#160
b10 2
b1110 A
1J
1M
#161
b1000100011110001 "
b1 2
b10100 A
0J
0M
#162
b10 2
b10011 A
1J
1M
#163
b1000100011110010 "
b1 2
b11001 A
0J
0M
#164
b10 2
b11000 A
1J
1M
#165
b1000100011110011 "
b1 2
b0 A
0J
0M
#166
b10 2
b11111111 A
1J
1M
#167
b1000100011110100 "
b1 2
b101 A
0J
0M
#168
b10 2
b100 A
1J
1M
#169
b1000100011110101 "
b1 2
b1010 A
0J
0M
#170
b10 2
b1001 A
1J
1M
#171
b1000100011110110 "
b1 2
b1111 A
0J
0M
#172
b10 2
b1110 A
1J
1M
#173
b1000100011110111 "
b1 2
b10100 A
0J
0M
#174
b10 2
b10011 A
1J
1M
#175
b1000100011111000 "
b1 2
b11001 A
0J
0M
#176
b10 2
b11000 A
1J
1M
#177
b1000100011111001 "
b1 2
b0 A
0J
0M
#178
b10 2
b11111111 A
1J
1M
#179
b1000100011111010 "
b1 2
b101 A
0J
0M
#180
b10 2
b100 A
1J
1M
#181
b1000100011111011 "
b1 2
b1010 A
0J
0M
#182
b10 2
b1001 A
1J
1M
#183
b1000100011111100 "
b1 2
b1111 A
0J
0M
#184
b10 2
b1110 A
1J
1M
#185
b1000100011111101 "
b1 2
b10100 A
0J
0M
#186
b10 2
b10011 A
1J
1M
#187
b1000100011111110 "
b1 2
b11001 A
0J
0M
#188
b10 2
b11000 A
1J
1M
#189
b1000100011111111 "
b1 2
b0 A
0J
0M
#190
b10 2
b11111111 A
1J
1M
#191
b1000100100000000 "
b1 2
b101 A
0J
0M
#192
b10 2
b100 A
1J
1M
#193
b1000100100000001 "
b1 2
b1010 A
0J
0M
#194
b10 2
b1001 A
1J
1M
#195
b1000100100000010 "
b1 2
b1111 A
0J
0M
#196
b10 2
b1110 A
1J
1M
#197
b1000100100000011 "
b1 2
b10100 A
0J
0M
#198
b10 2
b10011 A
1J
1M
#199
b1000100100000100 "
b1 2
b11001 A
0J
0M
#200
b10 2
b11000 A
1J
1M
#201
b1000100100000101 "
b1 2
b0 A
0J
0M
#202
b10 2
b11111111 A
1J
1M
#203
b1000100100000110 "
b1 2
b101 A
0J
0M
#204
b10 2
b100 A
1J
1M
#205
b1000100100000111 "
b1 2
b1010 A
0J
0M
#206
b10 2
b1001 A
1J
1M
#207
b1000100100001000 "
b1 2
b1111 A
0J
0M
#208
b10 2
b1110 A
1J
1M
#209
b1000100100001001 "
b1 2
b10100 A
0J
0M
#210
b10 2
b10011 A
1J
1M
#211
b1000100100001010 "
b1 2
b11001 A
0J
0M
#212
b10 2
b11000 A
1J
1M
#213
b1000100100001011 "
b1 2
b0 A
0J
0M
#214
b10 2
b11111111 A
1J
1M
#215
b1000100100001100 "
b1 2
b101 A
0J
0M
#216
b10 2
b100 A
1J
1M
#217
b1000100100001101 "
b1 2
b1010 A
0J
0M
#218
b10 2
b1001 A
1J
1M
#219
b1000100100001110 "
b1 2
b1111 A
0J
0M
#220
b10 2
b1110 A
1J
1M
#221
b1000100100001111 "
b1 2
b10100 A
0J
0M
#222
b10 2
b10011 A
1J
1M
#223
b1000100100010000 "
b1 2
b11001 A
0J
0M
#224
b10 2
b11000 A
1J
1M
#225
b1000100100010001 "
b1 2
b0 A
0J
0M
#226
b10 2
b11111111 A
1J
1M
#227
b1000100100010010 "
b1 2
b101 A
0J
0M
#228
b10 2
b100 A
1J
1M
#229
b1000100100010011 "
b1 2
b1010 A
0J
0M
#230
b10 2
b1001 A
1J
1M
#231
b1000100100010100 "
b1 2
b1111 A
0J
0M
#232
b10 2
b1110 A
1J
1M
#233
b1000100100010101 "
b1 2
b10100 A
0J
0M
#234
b10 2
b10011 A
1J
1M
#235
b1000100100010110 "
b1 2
b11001 A
0J
0M
#236
b10 2
b11000 A
1J
1M
#237
b1000100100010111 "
b1 2
b0 A
0J
0M
#238
b10 2
b11111111 A
1J
1M
#239
b1000100100011000 "
b1 2
b101 A
0J
0M
#240
b10 2
b100 A
1J
1M
#241
b1000100100011001 "
b1 2
b1010 A
0J
0M
#242
b10 2
b1001 A
1J
1M
#243
b1000100100011010 "
b1 2
b1111 A
0J
0M
#244
b10 2
b1110 A
1J
1M
#245
b1000100100011011 "
b1 2
b10100 A
0J
0M
#246
b10 2
b10011 A
1J
1M
#247
b1000100100011100 "
b1 2
b11001 A
0J
0M
#248
b10 2
b11000 A
1J
1M
#249
b1000100100011101 "
b1 2
b0 A
0J
0M
#250
b10 2
b11111111 A
1J
1M
#251
b1000100100011110 "
b1 2
b101 A
0J
0M
#252
b10 2
b100 A
1J
1M
#253
b1000100100011111 "
b1 2
b1010 A
0J
0M
#254
b10 2
b1001 A
1J
1M
#255
b1000100100100000 "
b1 2
b1111 A
0J
0M
#256
b10 2
b1110 A
1J
1M
#257
b1000100100100001 "
b1 2
b10100 A
0J
0M
#258
b10 2
b10011 A
1J
1M
#259
b1000100100100010 "
b1 2
b11001 A
0J
0M
#260
b10 2
b11000 A
1J
1M
#261
b1000100100100011 "
b1 2
b0 A
0J
0M
#262
b10 2
b11111111 A
1J
1M
#263
b1000100100100100 "
b1 2
b101 A
0J
0M
#264
b10 2
b100 A
1J
1M
#265
b1000100100100101 "
b1 2
b1010 A
0J
0M
#266
b10 2
b1001 A
1J
1M
#267
b1000100100100110 "
b1 2
b1111 A
0J
0M
#268
b10 2
b1110 A
1J
1M
#269
b1000100100100111 "
b1 2
b10100 A
0J
0M
#270
b10 2
b10011 A
1J
1M
#271
b1000100100101000 "
b1 2
b11001 A
0J
0M
#272
b10 2
b11000 A
1J
1M
#273
b1000100100101001 "
b1 2
b0 A
0J
0M
#274
b10 2
b11111111 A
1J
1M
#275
b1000100100101010 "
b1 2
b101 A
0J
0M
#276
b10 2
b100 A
1J
1M
#277
b1000100100101011 "
b1 2
b1010 A
0J
0M
#278
b10 2
b1001 A
1J
1M
#279
b1000100100101100 "
b1 2
b1111 A
0J
0M
#280
b10 2
b1110 A
1J
1M
#281
b1000100100101101 "
b1 2
b10100 A
0J
0M
#282
b10 2
b10011 A
1J
1M
#283
b1000100100101110 "
b1 2
b11001 A
0J
0M
#284
b10 2
b11000 A
1J
1M
#285
b1000100100101111 "
b1 2
b0 A
0J
0M
#286
b10 2
b11111111 A
1J
1M
#287
b1000100100110000 "
b1 2
b101 A
0J
0M
#288
b10 2
b100 A
1J
1M
#289
b1000100100110001 "
b1 2
b1010 A
0J
0M
#290
b10 2
b1001 A
1J
1M
#291
b1000100100110010 "
b1 2
b1111 A
0J
0M
#292
b10 2
b1110 A
1J
1M
#293
b1000100100110011 "
b1 2
b10100 A
0J
0M
#294
b10 2
b10011 A
1J
1M
#295
b1000100100110100 "
b1 2
b11001 A
0J
0M
#296
b10 2
b11000 A
1J
1M
#297
b1000100100110101 "
b1 2
b0 A
0J
0M
#298
b10 2
b11111111 A
1J
1M
#299
b1000100100110110 "
b1 2
b101 A
0J
0M
#300
b10 2
b100 A
1J
1M
#301
b1000100100110111 "
b1 2
b1010 A
0J
0M
#302
b10 2
b1001 A
1J
1M
#303
b1000100100111000 "
b1 2
b1111 A
0J
0M
#304
b10 2
b1110 A
1J
1M
#305
b1000100100111001 "
b1 2
b10100 A
0J
0M
#306
b10 2
b10011 A
1J
1M
#307
b1000100100111010 "
b1 2
b11001 A
0J
0M
#308
b10 2
b11000 A
1J
1M
#309
b1000100100111011 "
b1 2
b0 A
0J
0M
#310
b10 2
b11111111 A
1J
1M
#311
b1000100100111100 "
b1 2
b101 A
0J
0M
#312
b10 2
b100 A
1J
1M
#313
b1000100100111101 "
b1 2
b1010 A
0J
0M
#314
b10 2
b1001 A
1J
1M
#315
b1000100100111110 "
b1 2
b1111 A
0J
0M
#316
b10 2
b1110 A
1J
1M
#317
b1000100100111111 "
b1 2
b10100 A
0J
0M
#318
b10 2
b10011 A
1J
1M
#319
b1000100101000000 "
b1 2
b11001 A
0J
0M
#320
b10 2
b11000 A
1J
1M
#321
b1000100101000001 "
b1 2
b0 A
0J
0M
#322
b10 2
b11111111 A
1J
1M
#323
b1000100101000010 "
b1 2
b101 A
0J
0M
#324
b10 2
b100 A
1J
1M
#325
b1000100101000011 "
b1 2
b1010 A
0J
0M
#326
b10 2
b1001 A
1J
1M
#327
b1000100101000100 "
b1 2
b1111 A
0J
0M
#328
b10 2
b1110 A
1J
1M
#329
b1000100101000101 "
b1 2
b10100 A
0J
0M
#330
b10 2
b10011 A
1J
1M
#331
b1000100101000110 "
b1 2
b11001 A
0J
0M
#332
b10 2
b11000 A
1J
1M
#333
b1000100101000111 "
b1 2
b0 A
0J
0M
#334
b10 2
b11111111 A
1J
1M
#335
b1000100101001000 "
b1 2
b101 A
0J
0M
#336
b10 2
b100 A
1J
1M
#337
b1000100101001001 "
b1 2
b1010 A
0J
0M
#338
b10 2
b1001 A
1J
1M
#339
b1000100101001010 "
b1 2
b1111 A
0J
0M
#340
b10 2
b1110 A
1J
1M
#341
b1000100101001011 "
b1 2
b10100 A
0J
0M
#342
b10 2
b10011 A
1J
1M
#343
b1000100101001100 "
b1 2
b11001 A
0J
0M
#344
b10 2
b11000 A
1J
1M
#345
b1000100101001101 "
b1 2
b0 A
0J
0M
#346
b10 2
b11111111 A
1J
1M
#347
b1000100101001110 "
b1 2
b101 A
0J
0M
#348
b10 2
b100 A
1J
1M
#349
b1000100101001111 "
b1 2
b1010 A
0J
0M
#350
b10 2
b1001 A
1J
1M
#351
b1000100101010000 "
b1 2
b1111 A
0J
0M
#352
b10 2
b1110 A
1J
1M
#353
b1000100101010001 "
b1 2
b10100 A
0J
0M
#354
b10 2
b10011 A
1J
1M
#355
b1000100101010010 "
b1 2
b11001 A
0J
0M
#356
b10 2
b11000 A
1J
1M
#357
b1000100101010011 "
b1 2
b0 A
1K
#358
b1000100101010100 "
0J
0K
0M
#359
b10 2
b11111111 A
1J
1M
#360
b1000100101010101 "
b1 2
b101 A
0J
0M
#361
b10 2
b100 A
1J
1M
#362
b1000100101010110 "
b1 2
b1010 A
0J
0M
#363
b10 2
b1001 A
1J
1M
#364
b1000100101010111 "
b1 2
b1111 A
0J
0M
#365
b10 2
b1110 A
1J
1M
#366
b1000100101011000 "
b1 2
b10100 A
0J
0M
#367
b10 2
b10011 A
1J
1M
#368
b1000100101011001 "
b1 2
b11001 A
0J
0M
#369
b10 2
b11000 A
1J
1M
#370
b1000100101011010 "
b1 2
b0 A
0J
0M
#371
b10 2
b11111111 A
1J
1M
#372
b1000100101011011 "
b1 2
b101 A
0J
0M
#373
b10 2
b100 A
1J
1M
#374
b1000100101011100 "
b1 2
b1010 A
0J
0M
#375
b10 2
b1001 A
1J
1M
#376
b1000100101011101 "
b1 2
b1111 A
0J
0M
#377
b10 2
b1110 A
1J
1M
#378
b1000100101011110 "
b1 2
b10100 A
0J
0M
#379
b10 2
b10011 A
1J
1M
#380
b1000100101011111 "
b1 2
b11001 A
0J
0M
#381
b10 2
b11000 A
1J
1M
#382
b1000100101100000 "
b1 2
b0 A
0J
0M
#383
b10 2
b11111111 A
1J
1M
#384
b1000100101100001 "
b1 2
b101 A
0J
0M
#385
b10 2
b100 A
1J
1M
#386
b1000100101100010 "
b1 2
b1010 A
0J
0M
#387
b10 2
b1001 A
1J
1M
#388
b1000100101100011 "
b1 2
b1111 A
0J
0M
#389
b10 2
b1110 A
1J
1M
#390
b1000100101100100 "
b1 2
b10100 A
0J
0M
#391
b10 2
b10011 A
1J
1M
#392
b1000100101100101 "
b1 2
b11001 A
0J
0M
#393
b10 2
b11000 A
1J
1M
#394
b1000100101100110 "
b1 2
b0 A
0J
0M
#395
b10 2
b11111111 A
1J
1M
#396
b1000100101100111 "
b1 2
b101 A
0J
0M
#397
b10 2
b100 A
1J
1M
#398
b1000100101101000 "
b1 2
b1010 A
0J
0M
#399
b10 2
b1001 A
1J
1M
#400
b1000100101101001 "
b1 2
b1111 A
0J
0M
#401
b10 2
b1110 A
1J
1M
#402
b1000100101101010 "
b1 2
b10100 A
0J
0M
#403
b10 2
b10011 A
1J
1M
#404
b1000100101101011 "
b1 2
b11001 A
0J
0M
#405
b10 2
b11000 A
1J
1M
#406
b1000100101101100 "
b1 2
b0 A
0J
0M
#407
b10 2
b11111111 A
1J
1M
#408
b1000100101101101 "
b1 2
b101 A
0J
0M
#409
b10 2
b100 A
1J
1M
#410
b1000100101101110 "
b1 2
b1010 A
0J
0M
#411
b10 2
b1001 A
1J
1M
#412
b1000100101101111 "
b1 2
b1111 A
0J
0M
#413
b10 2
b1110 A
1J
1M
#414
b1000100101110000 "
b1 2
b10100 A
0J
0M
#415
b10 2
b10011 A
1J
1M
#416
b1000100101110001 "
b1 2
b11001 A
0J
0M
#417
b10 2
b11000 A
1J
1M
#418
b1000100101110010 "
b1 2
b0 A
0J
0M
#419
b10 2
b11111111 A
1J
1M
#420
b1000100101110011 "
b1 2
b101 A
0J
0M
#421
b10 2
b100 A
1J
1M
#422
b1000100101110100 "
b1 2
b1010 A
0J
0M
#423
b10 2
b1001 A
1J
1M
#424
b1000100101110101 "
b1 2
b1111 A
0J
0M
#425
b10 2
b1110 A
1J
1M
#426
b1000100101110110 "
b1 2
b10100 A
0J
0M
#427
b10 2
b10011 A
1J
1M
#428
b1000100101110111 "
b1 2
b11001 A
0J
0M
#429
b10 2
b11000 A
1J
1M
#430
b1000100101111000 "
b1 2
b0 A
0J
0M
#431
b10 2
b11111111 A
1J
1M
#432
b1000100101111001 "
b1 2
b101 A
0J
0M
#433
b10 2
b100 A
1J
1M
#434
b1000100101111010 "
b1 2
b1010 A
0J
0M
#435
b10 2
b1001 A
1J
1M
#436
b1000100101111011 "
b1 2
b1111 A
0J
0M
#437
b10 2
b1110 A
1J
1M
#438
b1000100101111100 "
b1 2
b10100 A
0J
0M
#439
b10 2
b10011 A
1J
1M
#440
b1000100101111101 "
b1 2
b11001 A
0J
0M
#441
b10 2
b11000 A
1J
1M
#442
b1000100101111110 "
b1 2
b0 A
0J
0M
#443
b10 2
b11111111 A
1J
1M
#444
b1000100101111111 "
b1 2
b101 A
0J
0M
#445
b10 2
b100 A
1J
1M
#446
b1000100110000000 "
b1 2
b1010 A
0J
0M
#447
b10 2
b1001 A
1J
1M
#448
b1000100110000001 "
b1 2
b1111 A
0J
0M
#449
b10 2
b1110 A
1J
1M
#450
b1000100110000010 "
b1 2
b10100 A
0J
0M
#451
b10 2
b10011 A
1J
1M
#452
b1000100110000011 "
b1 2
b11001 A
0J
0M
#453
b10 2
b11000 A
1J
1M
#454
b1000100110000100 "
b1 2
b0 A
0J
0M
#455
b10 2
b11111111 A
1J
1M
#456
b1000100110000101 "
b1 2
b101 A
0J
0M
#457
b10 2
b100 A
1J
1M
#458
b1000100110000110 "
b1 2
b1010 A
0J
0M
#459
b10 2
b1001 A
1J
1M
#460
b1000100110000111 "
b1 2
b1111 A
0J
0M
#461
b10 2
b1110 A
1J
1M
#462
b1000100110001000 "
b1 2
b10100 A
0J
0M
#463
b10 2
b10011 A
1J
1M
#464
b1000100110001001 "
b1 2
b11001 A
0J
0M
#465
b10 2
b11000 A
1J
1M
#466
b1000100110001010 "
b1 2
b0 A
0J
0M
#467
b10 2
b11111111 A
1J
1M
#468
b1000100110001011 "
b1 2
b101 A
0J
0M
#469
b10 2
b100 A
1J
1M
#470
b1000100110001100 "
b1 2
b1010 A
0J
0M
#471
b10 2
b1001 A
1J
1M
#472
b1000100110001101 "
b1 2
b1111 A
0J
0M
#473
b10 2
b1110 A
1J
1M
#474
b1000100110001110 "
b1 2
b10100 A
0J
0M
#475
b10 2
b10011 A
1J
1M
#476
b1000100110001111 "
b1 2
b11001 A
0J
0M
#477
b10 2
b11000 A
1J
1M
#478
b1000100110010000 "
b1 2
b0 A
0J
0M
#479
b10 2
b11111111 A
1J
1M
#480
b1000100110010001 "
b1 2
b101 A
0J
0M
#481
b10 2
b100 A
1J
1M
#482
b1000100110010010 "
b1 2
b1010 A
0J
0M
#483
b10 2
b1001 A
1J
1M
#484
b1000100110010011 "
b1 2
b1111 A
0J
0M
#485
b10 2
b1110 A
1J
1M
#486
b1000100110010100 "
b1 2
b10100 A
0J
0M
#487
b10 2
b10011 A
1J
1M
#488
b1000100110010101 "
b1 2
b11001 A
0J
0M
#489
b10 2
b11000 A
1J
1M
#490
b1000100110010110 "
b1 2
b0 A
0J
0M
#491
b10 2
b11111111 A
1J
1M
#492
b1000100110010111 "
b1 2
b101 A
0J
0M
#493
b10 2
b100 A
1J
1M
#494
b1000100110011000 "
b1 2
b1010 A
0J
0M
#495
b10 2
b1001 A
1J
1M
#496
b1000100110011001 "
b1 2
b1111 A
0J
0M
#497
b10 2
b1110 A
1J
1M
#498
b1000100110011010 "
b1 2
b10100 A
0J
0M
#499
b10 2
b10011 A
1J
1M
#500
b1000100110011011 "
b1 2
b11001 A
0J
0M
#501
b10 2
b11000 A
1J
1M
#502
b1000100110011100 "
b1 2
b0 A
0J
0M
#503
b10 2
b11111111 A
1J
1M
#504
b1000100110011101 "
b1 2
b101 A
0J
0M
#505
b10 2
b100 A
1J
1M
#506
b1000100110011110 "
b1 2
b1010 A
0J
0M
#507
b10 2
b1001 A
1J
1M
#508
b1000100110011111 "
b1 2
b1111 A
0J
0M
#509
b10 2
b1110 A
1J
1M
#510
b1000100110100000 "
b1 2
b10100 A
0J
0M
#511
b10 2
b10011 A
1J
1M
#512
b1000100110100001 "
b1 2
b11001 A
0J
0M
#513
b10 2
b11000 A
1J
1M
#514
b1000100110100010 "
b1 2
b0 A
0J
0M
#515
b10 2
b11111111 A
1J
1M
#516
b1000100110100011 "
b1 2
b101 A
0J
0M
#517
b10 2
b100 A
1J
1M
#518
b1000100110100100 "
b1 2
b1010 A
0J
0M
#519
b10 2
b1001 A
1J
1M
#520
b1000100110100101 "
b1 2
b1111 A
0J
0M
#521
b10 2
b1110 A
1J
1M
#522
b1000100110100110 "
b1 2
b10100 A
0J
0M
#523
b10 2
b10011 A
1J
1M
#524
b1000100110100111 "
b1 2
b11001 A
0J
0M
#525
b10 2
b11000 A
1J
1M
#526
b1000100110101000 "
b1 2
b0 A
0J
0M
#527
b10 2
b11111111 A
1J
1M
#528
b1000100110101001 "
b1 2
b101 A
0J
0M
#529
b10 2
b100 A
1J
1M
#530
b1000100110101010 "
b1 2
b1010 A
0J
0M
#531
b10 2
b1001 A
1J
1M
#532
b1000100110101011 "
b1 2
b1111 A
0J
0M
#533
b10 2
b1110 A
1J
1M
#534
b1000100110101100 "
b1 2
b10100 A
0J
0M
#535
b10 2
b10011 A
1J
1M
#536
b1000100110101101 "
b1 2
b11001 A
0J
0M
#537
b10 2
b11000 A
1J
1M
#538
b1000100110101110 "
b1 2
b0 A
0J
0M
#539
b10 2
b11111111 A
1J
1M
#540
b1000100110101111 "
b1 2
b101 A
0J
0M
#541
b10 2
b100 A
1J
1M
#542
b1000100110110000 "
b1 2
b1010 A
0J
0M
#543
b10 2
b1001 A
1J
1M
#544
b1000100110110001 "
b1 2
b1111 A
0J
0M
#545
b10 2
b1110 A
1J
1M
#546
b1000100110110010 "
b1 2
b10100 A
0J
0M
#547
b10 2
b10011 A
1J
1M
#548
b1000100110110011 "
b1 2
b11001 A
0J
0M
#549
b10 2
b11000 A
1J
1M
#550
b1000100110110100 "
b1 2
b0 A
0J
0M
#551
b10 2
b11111111 A
1J
1M
#552
b1000100110110101 "
b1 2
b101 A
0J
0M
#553
b10 2
b100 A
1J
1M
#554
b1000100110110110 "
b1 2
b1010 A
0J
0M
#555
b10 2
b1001 A
1J
1M
#556
b1000100110110111 "
b1 2
b1111 A
0J
0M
#557
b10 2
b1110 A
1J
1M
#558
b1000100110111000 "
b1 2
b10100 A
0J
0M
#559
b10 2
b10011 A
1J
1M
#560
b1000100110111001 "
b1 2
b11001 A
0J
0M
#561
b10 2
b11000 A
1J
1M
#562
b1000100110111010 "
b1 2
b0 A
0J
0M
#563
b10 2
b11111111 A
1J
1M
#564
b1000100110111011 "
b1 2
b101 A
0J
0M
#565
b10 2
b100 A
1J
1M
#566
b1000100110111100 "
b1 2
b1010 A
0J
0M
#567
b10 2
b1001 A
1J
1M
#568
b1000100110111101 "
b1 2
b1111 A
0J
0M
#569
b10 2
b1110 A
1J
1M
#570
b1000100110111110 "
b1 2
b10100 A
0J
0M
#571
b10 2
b10011 A
1J
1M
#572
b1000100110111111 "
b1 2
b11001 A
0J
0M
#573
b10 2
b11000 A
1J
1M
#574
b1000100111000000 "
b1 2
b0 A
0J
0M
#575
b10 2
b11111111 A
1J
1M
#576
b1000100111000001 "
b1 2
b101 A
0J
0M
#577
b10 2
b100 A
1J
1M
#578
b1000100111000010 "
b1 2
b1010 A
0J
0M
#579
b10 2
b1001 A
1J
1M
#580
b1000100111000011 "
b1 2
b1111 A
0J
0M
#581
b10 2
b1110 A
1J
1M
#582
b1000100111000100 "
b1 2
b10100 A
0J
0M
#583
b10 2
b10011 A
1J
1M
#584
b1000100111000101 "
b1 2
b11001 A
0J
0M
#585
b10 2
b11000 A
1J
1M
#586
b1000100111000110 "
b1 2
b0 A
0J
0M
