i2c_ILA_final/.Xil/Vivado-10796-DESKTOP-4A9L7PJ/hw_ila_data_1/zip_work/waveform.vcd
$date
        2021-Feb-13 12:56:44
$end
$version
        Vivado v2020.1 (64-bit)
$end
$timescale
        1ps
$end
$scope module dut $end
$var reg 16 " led_OBUF [15:0] $end
$var reg 8 2 data_out_OBUF [7:0] $end
$var reg 7 : s_address_out_OBUF [6:0] $end
$var reg 8 A temp_sig_3 [7:0] $end
$var reg 1 I ack_addr_out_OBUF $end
$var reg 1 J ack_data_out_OBUF $end
$var reg 1 K display_data $end
$var reg 1 L rw_out_OBUF $end
$var reg 1 M scl $end
$var reg 1 N sda $end
$var reg 1 O _TRIGGER $end
$var reg 1 P _WINDOW $end
$var reg 1 Q _GAP $end
$upscope $end
$enddefinitions $end
#0
$dumpvars
b1000 "
b0 2
b0 :
b10 A
0I
0J
0K
0L
1M
1N
0O
1P
0Q
$end
#1998
0N
#2000
b100 A
1O
#2504
0M
#3441
1M
#3443
b1000 A
#3935
0M
#3937
b10000 A
#3938
b111 "
b100000 A
#3960
1N
#4441
1M
#4443
b1000 A
#4935
0M
#4937
b10000 A
#4938
b110 "
b100000 A
#4967
0N
#5441
1M
#5443
b1000 A
#5935
0M
#5937
b10000 A
#5938
b101 "
b100000 A
#6441
1M
#6443
b1000 A
#6935
0M
#6937
b10000 A
#6938
b100 "
b100000 A
#7441
1M
#7443
b1000 A
#7935
0M
#7937
b10000 A
#7938
b11 "
b100000 A
#7960
1N
#8440
1M
#8442
b1000 A
#8935
0M
#8937
b10000 A
#8938
b10 "
b100000 A
#9440
1M
#9442
b1000 A
#9935
0M
#9937
b10000 A
#9938
b1 "
b100000 A
#9966
0N
#10440
1M
#10442
b1000 A
#10935
0M
#10937
b10000 A
#10938
b0 "
b100000 A
#11440
1M
#11442
b1000000 A
#11934
0M
#11935
1K
#11936
b11 2
b100011 :
b10 A
#11937
b1000 "
#11954
1N
#11961
0N
#12959
1M
#13453
0M
#13454
0K
#13455
b0 2
b0 :
b1000 A
#13456
b10000 A
#13457
b111 "
b100000 A
#13959
1M
#13961
b1000 A
#14453
0M
#14455
b10000 A
#14456
b110 "
b100000 A
#14959
1M
#14961
b1000 A
#15453
0M
#15455
b10000 A
#15456
b101 "
b100000 A
#15959
1M
#15961
b1000 A
#16453
0M
#16455
b10000 A
#16456
b100 "
b100000 A
#16959
1M
#16961
b1000 A
#17453
0M
#17455
b10000 A
#17456
b11 "
b100000 A
#17478
1N
#17958
1M
#17960
b1000 A
#18453
0M
#18455
b10000 A
#18456
b10 "
b100000 A
#18484
0N
#18959
1M
#18961
b1000 A
#19453
0M
#19455
b10000 A
#19456
b1 "
b100000 A
#19478
1N
#19958
1M
#19960
b1000 A
#20452
0M
#20455
b10000 A
#20456
b0 "
b100000 A
#20475
0N
#20958
1M
#20960
b1000000 A
#21452
0M
#21453
1K
#21454
b101 2
b100011 :
b10 A
#21455
b1000 "
#21472
1N
#21479
0N
#22389
1M
#22959
1N
#22961
b10000000 A
0K
#22962
b0 2
b0 :
b10 A
