spi_dec/.Xil/Vivado-9660-DESKTOP-4A9L7PJ/hw_ila_data_1/zip_work/waveform.vcd
$date
        2021-Mar-21 13:51:14
$end
$version
        Vivado v2020.1 (64-bit)
$end
$timescale
        1ps
$end
$scope module dut $end
$var reg 8 " byte_cnt [7:0] $end
$var reg 15 * pck_cnt [14:0] $end
$var reg 8 9 miso_data [7:0] $end
$var reg 8 A mosi_data [7:0] $end
$var reg 1 I display_data $end
$var reg 1 J miso $end
$var reg 1 K mosi $end
$var reg 1 L sck $end
$var reg 1 M ss $end
$var reg 1 N _TRIGGER $end
$var reg 1 O _WINDOW $end
$var reg 1 P _GAP $end
$upscope $end
$enddefinitions $end
#0
$dumpvars
b1 "
b1001000000 *
b11111111 9
b1 A
1I
1J
0K
0L
0M
0N
1O
0P
$end
#1
b10 "
b10 A
#2
b11 "
b11 A
#3
b100 "
b100 A
#4
b101 "
b101 A
#5
b1 "
b1001000001 *
b1 A
#6
b10 "
b10 A
#7
b11 "
b11 A
#8
b100 "
b100 A
#9
b101 "
b101 A
#10
b1 "
b1001000010 *
b1 A
#11
b10 "
b10 A
#12
b11 "
b11 A
#13
b100 "
b100 A
#14
b101 "
b101 A
#15
b1 "
b1001000011 *
b1 A
#16
b10 "
b10 A
#17
b11 "
b11 A
#18
b100 "
b100 A
#19
b101 "
b101 A
#20
b1 "
b1001000100 *
b1 A
#21
b10 "
b10 A
#22
b11 "
b11 A
#23
b100 "
b100 A
#24
b101 "
b101 A
#25
b1 "
b1001000101 *
b1 A
#26
b10 "
b10 A
#27
b11 "
b11 A
#28
b100 "
b100 A
#29
b101 "
b101 A
#30
b1 "
b1001000110 *
b1 A
#31
b10 "
b10 A
#32
b11 "
b11 A
#33
b100 "
b100 A
#34
b101 "
b101 A
#35
b1 "
b1001000111 *
b1 A
#36
b10 "
b10 A
#37
b11 "
b11 A
#38
b100 "
b100 A
#39
b101 "
b101 A
#40
b1 "
b1001001000 *
b1 A
#41
b10 "
b10 A
#42
b11 "
b11 A
#43
b100 "
b100 A
#44
b101 "
b101 A
#45
b1 "
b1001001001 *
b1 A
#46
b10 "
b10 A
#47
b11 "
b11 A
#48
b100 "
b100 A
#49
b101 "
b101 A
#50
b1 "
b1001001010 *
b1 A
#51
b10 "
b10 A
#52
b11 "
b11 A
#53
b100 "
b100 A
#54
b101 "
b101 A
#55
b1 "
b1001001011 *
b1 A
#56
b10 "
b10 A
#57
b11 "
b11 A
#58
b100 "
b100 A
#59
b101 "
b101 A
#60
b1 "
b1001001100 *
b1 A
#61
b10 "
b10 A
#62
b11 "
b11 A
#63
b100 "
b100 A
#64
b101 "
b101 A
#65
b1 "
b1001001101 *
b1 A
#66
b10 "
b10 A
#67
b11 "
b11 A
#68
b100 "
b100 A
#69
b101 "
b101 A
#70
b1 "
b1001001110 *
b1 A
#71
b10 "
b10 A
#72
b11 "
b11 A
#73
b100 "
b100 A
#74
b101 "
b101 A
#75
b1 "
b1001001111 *
b1 A
#76
b10 "
b10 A
#77
b11 "
b11 A
#78
b100 "
b100 A
#79
b101 "
b101 A
#80
b1 "
b1001010000 *
b1 A
#81
b10 "
b10 A
#82
b11 "
b11 A
#83
b100 "
b100 A
#84
b101 "
b101 A
#85
b1 "
b1001010001 *
b1 A
#86
b10 "
b10 A
#87
b11 "
b11 A
#88
b100 "
b100 A
#89
b101 "
b101 A
#90
b1 "
b1001010010 *
b1 A
#91
b10 "
b10 A
#92
b11 "
b11 A
#93
b100 "
b100 A
#94
b101 "
b101 A
#95
b1 "
b1001010011 *
b1 A
#96
b10 "
b10 A
#97
b11 "
b11 A
#98
b100 "
b100 A
#99
b101 "
b101 A
#100
b1 "
b1001010100 *
b1 A
#101
b10 "
b10 A
#102
b11 "
b11 A
#103
b100 "
b100 A
#104
b101 "
b101 A
#105
b1 "
b1001010101 *
b1 A
#106
b10 "
b10 A
#107
b11 "
b11 A
#108
b100 "
b100 A
#109
b101 "
b101 A
#110
b1 "
b1001010110 *
b1 A
#111
b10 "
b10 A
#112
b11 "
b11 A
#113
b100 "
b100 A
#114
b101 "
b101 A
#115
b1 "
b1001010111 *
b1 A
#116
b10 "
b10 A
#117
b11 "
b11 A
#118
b100 "
b100 A
#119
b101 "
b101 A
#120
b1 "
b1001011000 *
b1 A
#121
b10 "
b10 A
#122
b11 "
b11 A
#123
b100 "
b100 A
#124
b101 "
b101 A
#125
b1 "
b1001011001 *
b1 A
#126
b10 "
b10 A
#127
b11 "
b11 A
#128
b100 "
b100 A
#129
b101 "
b101 A
#130
b1 "
b1001011010 *
b1 A
#131
b10 "
b10 A
#132
b11 "
b11 A
#133
b100 "
b100 A
#134
b101 "
b101 A
#135
b1 "
b1001011011 *
b1 A
#136
b10 "
b10 A
#137
b11 "
b11 A
#138
b100 "
b100 A
#139
b101 "
b101 A
#140
b1 "
b1001011100 *
b1 A
#141
b10 "
b10 A
#142
b11 "
b11 A
#143
b100 "
b100 A
#144
b101 "
b101 A
#145
b1 "
b1001011101 *
b1 A
#146
b10 "
b10 A
#147
b11 "
b11 A
#148
b100 "
b100 A
#149
b101 "
b101 A
#150
b1 "
b1001011110 *
b1 A
#151
b10 "
b10 A
#152
b11 "
b11 A
#153
b100 "
b100 A
#154
b101 "
b101 A
#155
b1 "
b1001011111 *
b1 A
#156
b10 "
b10 A
#157
b11 "
b11 A
#158
b100 "
b100 A
#159
b101 "
b101 A
#160
b1 "
b1001100000 *
b1 A
#161
b10 "
b10 A
#162
b11 "
b11 A
#163
b100 "
b100 A
#164
b101 "
b101 A
#165
b1 "
b1001100001 *
b1 A
#166
b10 "
b10 A
#167
b11 "
b11 A
#168
b100 "
b100 A
#169
b101 "
b101 A
#170
b1 "
b1001100010 *
b1 A
#171
b10 "
b10 A
#172
b11 "
b11 A
#173
b100 "
b100 A
#174
b101 "
b101 A
#175
b1 "
b1001100011 *
b1 A
#176
b10 "
b10 A
#177
b11 "
b11 A
#178
b100 "
b100 A
#179
b101 "
b101 A
#180
b1 "
b1001100100 *
b1 A
#181
b10 "
b10 A
#182
b11 "
b11 A
#183
b100 "
b100 A
#184
b101 "
b101 A
#185
b1 "
b1001100101 *
b1 A
#186
b10 "
b10 A
#187
b11 "
b11 A
#188
b100 "
b100 A
#189
b101 "
b101 A
#190
b1 "
b1001100110 *
b1 A
#191
b10 "
b10 A
#192
b11 "
b11 A
#193
b100 "
b100 A
#194
b101 "
b101 A
#195
b1 "
b1001100111 *
b1 A
#196
b10 "
b10 A
#197
b11 "
b11 A
#198
b100 "
b100 A
#199
b101 "
b101 A
#200
b1 "
b1001101000 *
b1 A
#201
b10 "
b10 A
#202
b11 "
b11 A
#203
b100 "
b100 A
#204
b101 "
b101 A
#205
b1 "
b1001101001 *
b1 A
#206
b10 "
b10 A
#207
b11 "
b11 A
#208
b100 "
b100 A
#209
b101 "
b101 A
#210
b1 "
b1001101010 *
b1 A
#211
b10 "
b10 A
#212
b11 "
b11 A
#213
b100 "
b100 A
#214
b101 "
b101 A
#215
b1 "
b1001101011 *
b1 A
#216
b10 "
b10 A
#217
b11 "
b11 A
#218
b100 "
b100 A
#219
b101 "
b101 A
#220
b1 "
b1001101100 *
b1 A
#221
b10 "
b10 A
#222
b11 "
b11 A
#223
b100 "
b100 A
#224
b101 "
b101 A
#225
b1 "
b1001101101 *
b1 A
#226
b10 "
b10 A
#227
b11 "
b11 A
#228
b100 "
b100 A
#229
b101 "
b101 A
#230
b1 "
b1001101110 *
b1 A
#231
b10 "
b10 A
#232
b11 "
b11 A
#233
b100 "
b100 A
#234
b101 "
b101 A
#235
b1 "
b1001101111 *
b1 A
#236
b10 "
b10 A
#237
b11 "
b11 A
#238
b100 "
b100 A
#239
b101 "
b101 A
#240
b1 "
b1001110000 *
b1 A
#241
b10 "
b10 A
#242
b11 "
b11 A
#243
b100 "
b100 A
#244
b101 "
b101 A
#245
b1 "
b1001110001 *
b1 A
#246
b10 "
b10 A
#247
b11 "
b11 A
#248
b100 "
b100 A
#249
b101 "
b101 A
#250
b1 "
b1001110010 *
b1 A
#251
b10 "
b10 A
#252
b11 "
b11 A
#253
b100 "
b100 A
#254
b101 "
b101 A
#255
b1 "
b1001110011 *
b1 A
#256
b10 "
b10 A
#257
b11 "
b11 A
#258
b100 "
b100 A
#259
b101 "
b101 A
#260
b1 "
b1001110100 *
b1 A
#261
b10 "
b10 A
#262
b11 "
b11 A
#263
b100 "
b100 A
#264
b101 "
b101 A
#265
b1 "
b1001110101 *
b1 A
#266
b10 "
b10 A
#267
b11 "
b11 A
#268
b100 "
b100 A
#269
b101 "
b101 A
#270
b1 "
b1001110110 *
b1 A
#271
b10 "
b10 A
#272
b11 "
b11 A
#273
b100 "
b100 A
#274
b101 "
b101 A
#275
b1 "
b1001110111 *
b1 A
#276
b10 "
b10 A
#277
b11 "
b11 A
#278
b100 "
b100 A
#279
b101 "
b101 A
#280
b1 "
b1001111000 *
b1 A
#281
b10 "
b10 A
#282
b11 "
b11 A
#283
b100 "
b100 A
#284
b101 "
b101 A
#285
b1 "
b1001111001 *
b1 A
#286
b10 "
b10 A
#287
b11 "
b11 A
#288
b100 "
b100 A
#289
b101 "
b101 A
#290
b1 "
b1001111010 *
b1 A
#291
b10 "
b10 A
#292
b11 "
b11 A
#293
b100 "
b100 A
#294
b101 "
b101 A
#295
b1 "
b1001111011 *
b1 A
#296
b10 "
b10 A
#297
b11 "
b11 A
#298
b100 "
b100 A
#299
b101 "
b101 A
#300
b1 "
b1001111100 *
b1 A
#301
b10 "
b10 A
#302
b11 "
b11 A
#303
b100 "
b100 A
#304
b101 "
b101 A
#305
b1 "
b1001111101 *
b1 A
#306
b10 "
b10 A
#307
b11 "
b11 A
#308
b100 "
b100 A
#309
b101 "
b101 A
#310
b1 "
b1001111110 *
b1 A
#311
b10 "
b10 A
#312
b11 "
b11 A
#313
b100 "
b100 A
#314
b101 "
b101 A
#315
b1 "
b1001111111 *
b1 A
#316
b10 "
b10 A
#317
b11 "
b11 A
#318
b100 "
b100 A
#319
b101 "
b101 A
#320
b1 "
b1010000000 *
b1 A
#321
b10 "
b10 A
#322
b11 "
b11 A
#323
b100 "
b100 A
#324
b101 "
b101 A
#325
b1 "
b1010000001 *
b1 A
#326
b10 "
b10 A
#327
b11 "
b11 A
#328
b100 "
b100 A
#329
b101 "
b101 A
#330
b1 "
b1010000010 *
b1 A
#331
b10 "
b10 A
#332
b11 "
b11 A
#333
b100 "
b100 A
#334
b101 "
b101 A
#335
b1 "
b1010000011 *
b1 A
#336
b10 "
b10 A
#337
b11 "
b11 A
#338
b100 "
b100 A
#339
b101 "
b101 A
#340
b1 "
b1010000100 *
b1 A
#341
b10 "
b10 A
#342
b11 "
b11 A
#343
b100 "
b100 A
#344
b101 "
b101 A
#345
b1 "
b1010000101 *
b1 A
#346
b10 "
b10 A
#347
b11 "
b11 A
#348
b100 "
b100 A
#349
b101 "
b101 A
#350
b1 "
b1010000110 *
b1 A
#351
b10 "
b10 A
#352
b11 "
b11 A
#353
b100 "
b100 A
#354
b101 "
b101 A
#355
b1 "
b1010000111 *
b1 A
#356
b10 "
b10 A
#357
b11 "
b11 A
#358
b100 "
b100 A
#359
b101 "
b101 A
#360
b1 "
b1010001000 *
b1 A
#361
b10 "
b10 A
#362
b11 "
b11 A
#363
b100 "
b100 A
#364
b101 "
b101 A
#365
b1 "
b1010001001 *
b1 A
#366
b10 "
b10 A
#367
b11 "
b11 A
#368
b100 "
b100 A
#369
b101 "
b101 A
#370
b1 "
b1010001010 *
b1 A
#371
b10 "
b10 A
#372
b11 "
b11 A
#373
b100 "
b100 A
#374
b101 "
b101 A
#375
b1 "
b1010001011 *
b1 A
#376
b10 "
b10 A
#377
b11 "
b11 A
#378
b100 "
b100 A
#379
b101 "
b101 A
#380
b1 "
b1010001100 *
b1 A
#381
b10 "
b10 A
#382
b11 "
b11 A
#383
b100 "
b100 A
#384
b101 "
b101 A
#385
b1 "
b1010001101 *
b1 A
#386
b10 "
b10 A
#387
b11 "
b11 A
#388
b100 "
b100 A
#389
b101 "
b101 A
#390
b1 "
b1010001110 *
b1 A
#391
b10 "
b10 A
#392
b11 "
b11 A
#393
b100 "
b100 A
#394
b101 "
b101 A
#395
b1 "
b1010001111 *
b1 A
#396
b10 "
b10 A
#397
b11 "
b11 A
#398
b100 "
b100 A
#399
b101 "
b101 A
#400
b1 "
b1010010000 *
b1 A
#401
b10 "
b10 A
#402
b11 "
b11 A
#403
b100 "
b100 A
#404
b101 "
b101 A
#405
b1 "
b1010010001 *
b1 A
#406
b10 "
b10 A
#407
b11 "
b11 A
#408
b100 "
b100 A
#409
b101 "
b101 A
#410
b1 "
b1010010010 *
b1 A
#411
b10 "
b10 A
#412
b11 "
b11 A
#413
b100 "
b100 A
#414
b101 "
b101 A
#415
b1 "
b1010010011 *
b1 A
#416
b10 "
b10 A
#417
b11 "
b11 A
#418
b100 "
b100 A
#419
b101 "
b101 A
#420
b1 "
b1010010100 *
b1 A
#421
b10 "
b10 A
#422
b11 "
b11 A
#423
b100 "
b100 A
#424
b101 "
b101 A
#425
b1 "
b1010010101 *
b1 A
#426
b10 "
b10 A
#427
b11 "
b11 A
#428
b100 "
b100 A
#429
b101 "
b101 A
#430
b1 "
b1010010110 *
b1 A
#431
b10 "
b10 A
#432
b11 "
b11 A
#433
b100 "
b100 A
#434
b101 "
b101 A
#435
b1 "
b1010010111 *
b1 A
#436
b10 "
b10 A
#437
b11 "
b11 A
#438
b100 "
b100 A
#439
b101 "
b101 A
#440
b1 "
b1010011000 *
b1 A
#441
b10 "
b10 A
#442
b11 "
b11 A
#443
b100 "
b100 A
#444
b101 "
b101 A
#445
b1 "
b1010011001 *
b1 A
#446
b10 "
b10 A
#447
b11 "
b11 A
#448
b100 "
b100 A
#449
b101 "
b101 A
#450
b1 "
b1010011010 *
b1 A
#451
b10 "
b10 A
#452
b11 "
b11 A
#453
b100 "
b100 A
#454
b101 "
b101 A
#455
b1 "
b1010011011 *
b1 A
#456
b10 "
b10 A
#457
b11 "
b11 A
#458
b100 "
b100 A
#459
b101 "
b101 A
#460
b1 "
b1010011100 *
b1 A
#461
b10 "
b10 A
#462
b11 "
b11 A
#463
b100 "
b100 A
#464
b101 "
b101 A
#465
b1 "
b1010011101 *
b1 A
#466
b10 "
b10 A
#467
b11 "
b11 A
#468
b100 "
b100 A
#469
b101 "
b101 A
#470
b1 "
b1010011110 *
b1 A
#471
b10 "
b10 A
#472
b11 "
b11 A
#473
b100 "
b100 A
#474
b101 "
b101 A
#475
b1 "
b1010011111 *
b1 A
#476
b10 "
b10 A
#477
b11 "
b11 A
#478
b100 "
b100 A
#479
b101 "
b101 A
#480
b1 "
b1010100000 *
b1 A
#481
b10 "
b10 A
#482
b11 "
b11 A
#483
b100 "
b100 A
#484
b101 "
b101 A
#485
b1 "
b1010100001 *
b1 A
#486
b10 "
b10 A
#487
b11 "
b11 A
#488
b100 "
b100 A
#489
b101 "
b101 A
#490
b1 "
b1010100010 *
b1 A
#491
b10 "
b10 A
#492
b11 "
b11 A
#493
b100 "
b100 A
#494
b101 "
b101 A
#495
b1 "
b1010100011 *
b1 A
#496
b10 "
b10 A
#497
b11 "
b11 A
#498
b100 "
b100 A
#499
b101 "
b101 A
#500
b1 "
b1010100100 *
b1 A
#501
b10 "
b10 A
#502
b11 "
b11 A
#503
b100 "
b100 A
#504
b101 "
b101 A
#505
b1 "
b1010100101 *
b1 A
#506
b10 "
b10 A
#507
b11 "
b11 A
#508
b100 "
b100 A
#509
b101 "
b101 A
#510
b1 "
b1010100110 *
b1 A
#511
b10 "
b10 A
#512
b11 "
b11 A
#513
b100 "
b100 A
#514
b101 "
b101 A
#515
b1 "
b1010100111 *
b1 A
#516
b10 "
b10 A
#517
b11 "
b11 A
#518
b100 "
b100 A
#519
b101 "
b101 A
#520
b1 "
b1010101000 *
b1 A
#521
b10 "
b10 A
#522
b11 "
b11 A
#523
b100 "
b100 A
#524
b101 "
b101 A
#525
b1 "
b1010101001 *
b1 A
#526
b10 "
b10 A
#527
b11 "
b11 A
#528
b100 "
b100 A
#529
b101 "
b101 A
#530
b1 "
b1010101010 *
b1 A
#531
b10 "
b10 A
#532
b11 "
b11 A
#533
b100 "
b100 A
#534
b101 "
b101 A
#535
b1 "
b1010101011 *
b1 A
#536
b10 "
b10 A
#537
b11 "
b11 A
#538
b100 "
b100 A
#539
b101 "
b101 A
#540
b1 "
b1010101100 *
b1 A
#541
b10 "
b10 A
#542
b11 "
b11 A
#543
b100 "
b100 A
#544
b101 "
b101 A
#545
b1 "
b1010101101 *
b1 A
#546
b10 "
b10 A
#547
b11 "
b11 A
#548
b100 "
b100 A
#549
b101 "
b101 A
#550
b1 "
b1010101110 *
b1 A
#551
b10 "
b10 A
#552
b11 "
b11 A
#553
b100 "
b100 A
#554
b101 "
b101 A
#555
b1 "
b1010101111 *
b1 A
#556
b10 "
b10 A
#557
b11 "
b11 A
#558
b100 "
b100 A
#559
b101 "
b101 A
#560
b1 "
b1010110000 *
b1 A
#561
b10 "
b10 A
#562
b11 "
b11 A
#563
b100 "
b100 A
#564
b101 "
b101 A
#565
b1 "
b1010110001 *
b1 A
#566
b10 "
b10 A
#567
b11 "
b11 A
#568
b100 "
b100 A
#569
b101 "
b101 A
#570
b1 "
b1010110010 *
b1 A
#571
b10 "
b10 A
#572
b11 "
b11 A
#573
b100 "
b100 A
#574
b101 "
b101 A
#575
b1 "
b1010110011 *
b1 A
#576
b10 "
b10 A
#577
b11 "
b11 A
#578
b100 "
b100 A
#579
b101 "
b101 A
#580
b1 "
b1010110100 *
b1 A
#581
b10 "
b10 A
#582
b11 "
b11 A
#583
b100 "
b100 A
#584
b101 "
b101 A
#585
b1 "
b1010110101 *
b1 A
#586
b10 "
b10 A
#587
b11 "
b11 A
#588
b100 "
b100 A
#589
b101 "
b101 A
#590
b1 "
b1010110110 *
b1 A
#591
b10 "
b10 A
#592
b11 "
b11 A
#593
b100 "
b100 A
#594
b101 "
b101 A
#595
b1 "
b1010110111 *
b1 A
#596
b10 "
b10 A
#597
b11 "
b11 A
#598
b100 "
b100 A
#599
b101 "
b101 A
#600
b1 "
b1010111000 *
b1 A
#601
b10 "
b10 A
#602
b11 "
b11 A
#603
b100 "
b100 A
#604
b101 "
b101 A
#605
b1 "
b1010111001 *
b1 A
#606
b10 "
b10 A
#607
b11 "
b11 A
#608
b100 "
b100 A
#609
b101 "
b101 A
#610
b1 "
b1010111010 *
b1 A
#611
b10 "
b10 A
#612
b11 "
b11 A
#613
b100 "
b100 A
#614
b101 "
b101 A
#615
b1 "
b1010111011 *
b1 A
#616
b10 "
b10 A
#617
b11 "
b11 A
#618
b100 "
b100 A
#619
b101 "
b101 A
#620
b1 "
b1010111100 *
b1 A
#621
b10 "
b10 A
#622
b11 "
b11 A
#623
b100 "
b100 A
#624
b101 "
b101 A
#625
b1 "
b1010111101 *
b1 A
#626
b10 "
b10 A
#627
b11 "
b11 A
#628
b100 "
b100 A
#629
b101 "
b101 A
#630
b1 "
b1010111110 *
b1 A
#631
b10 "
b10 A
#632
b11 "
b11 A
#633
b100 "
b100 A
#634
b101 "
b101 A
#635
b1 "
b1010111111 *
b1 A
#636
b10 "
b10 A
#637
b11 "
b11 A
#638
b100 "
b100 A
#639
b101 "
b101 A
#640
b1 "
b1011000000 *
b1 A
#641
b10 "
b10 A
#642
b11 "
b11 A
#643
b100 "
b100 A
#644
b101 "
b101 A
#645
b1 "
b1011000001 *
b1 A
#646
b10 "
b10 A
#647
b11 "
b11 A
#648
b100 "
b100 A
#649
b101 "
b101 A
#650
b1 "
b1011000010 *
b1 A
#651
b10 "
b10 A
#652
b11 "
b11 A
#653
b100 "
b100 A
#654
b101 "
b101 A
#655
b1 "
b1011000011 *
b1 A
#656
b10 "
b10 A
#657
b11 "
b11 A
#658
b100 "
b100 A
#659
b101 "
b101 A
#660
b1 "
b1011000100 *
b1 A
#661
b10 "
b10 A
#662
b11 "
b11 A
#663
b100 "
b100 A
#664
b101 "
b101 A
#665
b1 "
b1011000101 *
b1 A
#666
b10 "
b10 A
#667
b11 "
b11 A
#668
b100 "
b100 A
#669
b101 "
b101 A
#670
b1 "
b1011000110 *
b1 A
#671
b10 "
b10 A
#672
b11 "
b11 A
#673
b100 "
b100 A
#674
b101 "
b101 A
#675
b1 "
b1011000111 *
b1 A
#676
b10 "
b10 A
#677
b11 "
b11 A
#678
b100 "
b100 A
#679
b101 "
b101 A
#680
b1 "
b1011001000 *
b1 A
#681
b10 "
b10 A
#682
b11 "
b11 A
#683
b100 "
b100 A
#684
b101 "
b101 A
#685
b1 "
b1011001001 *
b1 A
#686
b10 "
b10 A
#687
b11 "
b11 A
#688
b100 "
b100 A
#689
b101 "
b101 A
#690
b1 "
b1011001010 *
b1 A
#691
b10 "
b10 A
#692
b11 "
b11 A
#693
b100 "
b100 A
#694
b101 "
b101 A
#695
b1 "
b1011001011 *
b1 A
#696
b10 "
b10 A
#697
b11 "
b11 A
#698
b100 "
b100 A
#699
b101 "
b101 A
#700
b1 "
b1011001100 *
b1 A
#701
b10 "
b10 A
#702
b11 "
b11 A
#703
b100 "
b100 A
#704
b101 "
b101 A
#705
b1 "
b1011001101 *
b1 A
#706
b10 "
b10 A
#707
b11 "
b11 A
#708
b100 "
b100 A
#709
b101 "
b101 A
#710
b1 "
b1011001110 *
b1 A
#711
b10 "
b10 A
#712
b11 "
b11 A
#713
b100 "
b100 A
#714
b101 "
b101 A
#715
b1 "
b1011001111 *
b1 A
#716
b10 "
b10 A
#717
b11 "
b11 A
#718
b100 "
b100 A
#719
b101 "
b101 A
#720
b1 "
b1011010000 *
b1 A
#721
b10 "
b10 A
#722
b11 "
b11 A
#723
b100 "
b100 A
#724
b101 "
b101 A
#725
b1 "
b1011010001 *
b1 A
#726
b10 "
b10 A
#727
b11 "
b11 A
#728
b100 "
b100 A
#729
b101 "
b101 A
#730
b1 "
b1011010010 *
b1 A
#731
b10 "
b10 A
#732
b11 "
b11 A
#733
b100 "
b100 A
#734
b101 "
b101 A
#735
b1 "
b1011010011 *
b1 A
#736
b10 "
b10 A
#737
b11 "
b11 A
#738
b100 "
b100 A
#739
b101 "
b101 A
#740
b1 "
b1011010100 *
b1 A
#741
b10 "
b10 A
#742
b11 "
b11 A
#743
b100 "
b100 A
#744
b101 "
b101 A
#745
b1 "
b1011010101 *
b1 A
#746
b10 "
b10 A
#747
b11 "
b11 A
#748
b100 "
b100 A
#749
b101 "
b101 A
#750
b1 "
b1011010110 *
b1 A
#751
b10 "
b10 A
#752
b11 "
b11 A
#753
b100 "
b100 A
#754
b101 "
b101 A
#755
b1 "
b1011010111 *
b1 A
#756
b10 "
b10 A
#757
b11 "
b11 A
#758
b100 "
b100 A
#759
b101 "
b101 A
#760
b1 "
b1011011000 *
b1 A
#761
b10 "
b10 A
#762
b11 "
b11 A
#763
b100 "
b100 A
#764
b101 "
b101 A
#765
b1 "
b1011011001 *
b1 A
#766
b10 "
b10 A
#767
b11 "
b11 A
#768
b100 "
b100 A
#769
b101 "
b101 A
#770
b1 "
b1011011010 *
b1 A
#771
b10 "
b10 A
#772
b11 "
b11 A
#773
b100 "
b100 A
#774
b101 "
b101 A
#775
b1 "
b1011011011 *
b1 A
#776
b10 "
b10 A
#777
b11 "
b11 A
#778
b100 "
b100 A
#779
b101 "
b101 A
#780
b1 "
b1011011100 *
b1 A
#781
b10 "
b10 A
#782
b11 "
b11 A
#783
b100 "
b100 A
#784
b101 "
b101 A
#785
b1 "
b1011011101 *
b1 A
#786
b10 "
b10 A
#787
b11 "
b11 A
#788
b100 "
b100 A
#789
b101 "
b101 A
#790
b1 "
b1011011110 *
b1 A
#791
b10 "
b10 A
#792
b11 "
b11 A
#793
b100 "
b100 A
#794
b101 "
b101 A
#795
b1 "
b1011011111 *
b1 A
#796
b10 "
b10 A
#797
b11 "
b11 A
#798
b100 "
b100 A
#799
b101 "
b101 A
#800
b1 "
b1011100000 *
b1 A
#801
b10 "
b10 A
#802
b11 "
b11 A
#803
b100 "
b100 A
#804
b101 "
b101 A
#805
b1 "
b1011100001 *
b1 A
#806
b10 "
b10 A
#807
b11 "
b11 A
#808
b100 "
b100 A
#809
b101 "
b101 A
#810
b1 "
b1011100010 *
b1 A
#811
b10 "
b10 A
#812
b11 "
b11 A
#813
b100 "
b100 A
#814
b101 "
b101 A
#815
b1 "
b1011100011 *
b1 A
#816
b10 "
b10 A
#817
b11 "
b11 A
#818
b100 "
b100 A
#819
b101 "
b101 A
#820
b1 "
b1011100100 *
b1 A
#821
b10 "
b10 A
#822
b11 "
b11 A
#823
b100 "
b100 A
#824
b101 "
b101 A
#825
b1 "
b1011100101 *
b1 A
#826
b10 "
b10 A
#827
b11 "
b11 A
#828
b100 "
b100 A
#829
b101 "
b101 A
#830
b1 "
b1011100110 *
b1 A
#831
b10 "
b10 A
#832
b11 "
b11 A
#833
b100 "
b100 A
#834
b101 "
b101 A
#835
b1 "
b1011100111 *
b1 A
#836
b10 "
b10 A
#837
b11 "
b11 A
#838
b100 "
b100 A
#839
b101 "
b101 A
#840
b1 "
b1011101000 *
b1 A
#841
b10 "
b10 A
#842
b11 "
b11 A
#843
b100 "
b100 A
#844
b101 "
b101 A
#845
b1 "
b1011101001 *
b1 A
#846
b10 "
b10 A
#847
b11 "
b11 A
#848
b100 "
b100 A
#849
b101 "
b101 A
#850
b1 "
b1011101010 *
b1 A
#851
b10 "
b10 A
#852
b11 "
b11 A
#853
b100 "
b100 A
#854
b101 "
b101 A
#855
b1 "
b1011101011 *
b1 A
#856
b10 "
b10 A
#857
b11 "
b11 A
#858
b100 "
b100 A
#859
b101 "
b101 A
#860
b1 "
b1011101100 *
b1 A
#861
b10 "
b10 A
#862
b11 "
b11 A
#863
b100 "
b100 A
#864
b101 "
b101 A
#865
b1 "
b1011101101 *
b1 A
#866
b10 "
b10 A
#867
b11 "
b11 A
#868
b100 "
b100 A
#869
b101 "
b101 A
#870
b1 "
b1011101110 *
b1 A
#871
b10 "
b10 A
#872
b11 "
b11 A
#873
b100 "
b100 A
#874
b101 "
b101 A
#875
b1 "
b1011101111 *
b1 A
#876
b10 "
b10 A
#877
b11 "
b11 A
#878
b100 "
b100 A
#879
b101 "
b101 A
#880
b1 "
b1011110000 *
b1 A
#881
b10 "
b10 A
#882
b11 "
b11 A
#883
b100 "
b100 A
#884
b101 "
b101 A
#885
b1 "
b1011110001 *
b1 A
#886
b10 "
b10 A
#887
b11 "
b11 A
#888
b100 "
b100 A
#889
b101 "
b101 A
#890
b1 "
b1011110010 *
b1 A
#891
b10 "
b10 A
#892
b11 "
b11 A
#893
b100 "
b100 A
#894
b101 "
b101 A
#895
b1 "
b1011110011 *
b1 A
#896
b10 "
b10 A
#897
b11 "
b11 A
#898
b100 "
b100 A
#899
b101 "
b101 A
#900
b1 "
b1011110100 *
b1 A
#901
b10 "
b10 A
#902
b11 "
b11 A
#903
b100 "
b100 A
#904
b101 "
b101 A
#905
b1 "
b1011110101 *
b1 A
#906
b10 "
b10 A
#907
b11 "
b11 A
#908
b100 "
b100 A
#909
b101 "
b101 A
#910
b1 "
b1011110110 *
b1 A
#911
b10 "
b10 A
#912
b11 "
b11 A
#913
b100 "
b100 A
#914
b101 "
b101 A
#915
b1 "
b1011110111 *
b1 A
#916
b10 "
b10 A
#917
b11 "
b11 A
#918
b100 "
b100 A
#919
b101 "
b101 A
#920
b1 "
b1011111000 *
b1 A
#921
b10 "
b10 A
#922
b11 "
b11 A
#923
b100 "
b100 A
#924
b101 "
b101 A
#925
b1 "
b1011111001 *
b1 A
#926
b10 "
b10 A
#927
b11 "
b11 A
#928
b100 "
b100 A
#929
b101 "
b101 A
#930
b1 "
b1011111010 *
b1 A
#931
b10 "
b10 A
#932
b11 "
b11 A
#933
b100 "
b100 A
#934
b101 "
b101 A
#935
b1 "
b1011111011 *
b1 A
#936
b10 "
b10 A
#937
b11 "
b11 A
#938
b100 "
b100 A
#939
b101 "
b101 A
#940
b1 "
b1011111100 *
b1 A
#941
b10 "
b10 A
#942
b11 "
b11 A
#943
b100 "
b100 A
#944
b101 "
b101 A
#945
b1 "
b1011111101 *
b1 A
#946
b10 "
b10 A
#947
b11 "
b11 A
#948
b100 "
b100 A
#949
b101 "
b101 A
#950
b1 "
b1011111110 *
b1 A
#951
b10 "
b10 A
#952
b11 "
b11 A
#953
b100 "
b100 A
#954
b101 "
b101 A
#955
b1 "
b1011111111 *
b1 A
#956
b10 "
b10 A
#957
b11 "
b11 A
#958
b100 "
b100 A
#959
b101 "
b101 A
#960
b1 "
b1100000000 *
b1 A
#961
b10 "
b10 A
#962
b11 "
b11 A
#963
b100 "
b100 A
#964
b101 "
b101 A
#965
b1 "
b1100000001 *
b1 A
#966
b10 "
b10 A
#967
b11 "
b11 A
#968
b100 "
b100 A
#969
b101 "
b101 A
#970
b1 "
b1100000010 *
b1 A
#971
b10 "
b10 A
#972
b11 "
b11 A
#973
b100 "
b100 A
#974
b101 "
b101 A
#975
b1 "
b1100000011 *
b1 A
#976
b10 "
b10 A
#977
b11 "
b11 A
#978
b100 "
b100 A
#979
b101 "
b101 A
#980
b1 "
b1100000100 *
b1 A
#981
b10 "
b10 A
#982
b11 "
b11 A
#983
b100 "
b100 A
#984
b101 "
b101 A
#985
b1 "
b1100000101 *
b1 A
#986
b10 "
b10 A
#987
b11 "
b11 A
#988
b100 "
b100 A
#989
b101 "
b101 A
#990
b1 "
b1100000110 *
b1 A
#991
b10 "
b10 A
#992
b11 "
b11 A
#993
b100 "
b100 A
#994
b101 "
b101 A
#995
b1 "
b1100000111 *
b1 A
#996
b10 "
b10 A
#997
b11 "
b11 A
#998
b100 "
b100 A
#999
b101 "
b101 A
#1000
1K
1N
